{
  "$schema": "https://schema.management.azure.com/schemas/2015-01-01/deploymentParameters.json#",
  "contentVersion": "1.0.0.0",
  "parameters": {
    "vmSku": {
      "value": "Standard_A1"
    },
    "windowsOSVersion": {
      "value": "2012-R2-Datacenter"
    },
    "vmssName": {
      "value": "FOO"
    },
    "instanceCount": {
      "value": 2
    },
    "adminUsername": {
      "value": "windows"
    },
    "adminPassword": {
      "value": "t9Z7b-Z):ybg"
    },
    "vnetName": {
      "value": "foofoovnet"
    },
    "subnetName": {
      "value": "foofoosubnet"
    },
    "vaults_myquiz_externalid": {
      "value": "/subscriptions/8e293158-b459-4a99-be65-872e94944d4e/resourceGroups/myquiz/providers/Microsoft.KeyVault/vaults/myquiz"
    }
  }
}
